hw3_q3
…
Date was sepparated into year, month, and day. Maximum and minimum temperature were changed from tenths of degrees C to degrees C. Precipitation was changed from tenths of a mm to cm. Snowfall and snow depth were changed from mm to cm.

The most commonly observed snowfall value is 0 cm. The second most commonly observed snowfall is 2.5 cm.

ny_noaa %>% 
  group_by(snow) %>% 
  summarize(n = n()) %>% 
  arrange(desc(n))

## # A tibble: 282 x 2
##     snow       n
##    <dbl>   <int>
##  1   0   2008508
##  2  NA    381221
##  3   2.5   31022
##  4   1.3   23095
##  5   5.1   18274
##  6   7.6   10173
##  7   0.8    9962
##  8   0.5    9748
##  9   3.8    9197
## 10   0.3    8790
## # ... with 272 more rows
…
