…
For each year and state, the average proportion in each response category:

``` r
brfss %>%
  select(year, state, response, data_value) %>%
  rename(proportion = data_value) %>% 
  mutate(year = as.factor(year)) %>% 
  group_by(year, state, response) %>% 
  summarize(mean_prop = mean(proportion))
```

    ## # A tibble: 2,215 x 4
    ## # Groups:   year, state [?]
    ##    year  state response  mean_prop
    ##    <fct> <chr> <fct>         <dbl>
    ##  1 2002  AK    Excellent      27.9
    ##  2 2002  AK    Very good      33.7
    ##  3 2002  AK    Good           23.8
    ##  4 2002  AK    Fair            8.6
    ##  5 2002  AK    Poor            5.9
    ##  6 2002  AL    Excellent      18.5
    ##  7 2002  AL    Very good      30.9
    ##  8 2002  AL    Good           32.7
    ##  9 2002  AL    Fair           12.1
    ## 10 2002  AL    Poor            5.9
    ## # ... with 2,205 more rows
…
